{
    "/js/admin/admin.js": "/js/admin/admin.js",
    "/js/app.js": "/js/app.js",
    "/css/front.css": "/css/front.css",
    "/css/front-user.css": "/css/front-user.css",
    "/css/admin.css": "/css/admin.css",
    "/js/app-user.js": "/js/app-user.js",
    "/storage/app/images/global/brands/1/avocado.webp": "/storage/app/images/global/brands/1/avocado.webp",
    "/storage/app/images/global/brands/2/thaiherbalbody.webp": "/storage/app/images/global/brands/2/thaiherbalbody.webp",
    "/storage/app/images/global/brands/3/chamomile.webp": "/storage/app/images/global/brands/3/chamomile.webp",
    "/storage/app/images/global/photo/1/2.jpg": "/storage/app/images/global/photo/1/2.jpg",
    "/storage/app/images/global/photo/2/3.jpg": "/storage/app/images/global/photo/2/3.jpg",
    "/storage/app/images/global/photo/3/2.jpg": "/storage/app/images/global/photo/3/2.jpg",
    "/storage/app/images/global/photo/4/3.jpg": "/storage/app/images/global/photo/4/3.jpg",
    "/storage/app/images/global/photo/5/2.jpg": "/storage/app/images/global/photo/5/2.jpg",
    "/storage/app/images/global/photo/6/3.jpg": "/storage/app/images/global/photo/6/3.jpg",
    "/storage/app/images/global/cards/1/avocado.webp": "/storage/app/images/global/cards/1/avocado.webp",
    "/storage/app/images/global/cards/2/thai-herbal.webp": "/storage/app/images/global/cards/2/thai-herbal.webp",
    "/storage/app/images/global/cards/3/chamomile.webp": "/storage/app/images/global/cards/3/chamomile.webp",
    "/storage/app/images/global/users/1/1.jpg": "/storage/app/images/global/users/1/1.jpg",
    "/storage/app/images/global/users/2/2.jpg": "/storage/app/images/global/users/2/2.jpg",
    "/storage/app/images/global/users/3/3.jpg": "/storage/app/images/global/users/3/3.jpg",
    "/storage/app/images/global/users/4/4.jpg": "/storage/app/images/global/users/4/4.jpg",
    "/storage/app/images/global/users/5/5.jpg": "/storage/app/images/global/users/5/5.jpg",
    "/storage/app/images/global/users/6/6.jpg": "/storage/app/images/global/users/6/6.jpg",
    "/storage/app/images/global/users/7/7.jpg": "/storage/app/images/global/users/7/7.jpg",
    "/storage/app/images/global/users/8/8.jpg": "/storage/app/images/global/users/8/8.jpg",
    "/storage/app/images/global/users/9/9.jpg": "/storage/app/images/global/users/9/9.jpg",
    "/storage/app/images/global/users/10/10.jpg": "/storage/app/images/global/users/10/10.jpg",
    "/storage/app/images/global/users/11/11.jpg": "/storage/app/images/global/users/11/11.jpg",
    "/storage/app/images/global/users/12/12.jpg": "/storage/app/images/global/users/12/12.jpg",
    "/storage/app/images/global/users/13/13.jpg": "/storage/app/images/global/users/13/13.jpg",
    "/storage/app/images/global/users/14/14.jpg": "/storage/app/images/global/users/14/14.jpg",
    "/storage/app/images/global/users/15/15.jpg": "/storage/app/images/global/users/15/15.jpg",
    "/storage/app/images/global/users/16/16.jpg": "/storage/app/images/global/users/16/16.jpg",
    "/storage/app/images/global/users/17/17.jpg": "/storage/app/images/global/users/17/17.jpg",
    "/storage/app/images/global/users/1/qrcodeline.jpg": "/storage/app/images/global/users/1/qrcodeline.jpg",
    "/storage/app/images/global/users/2/qrcodeline.jpg": "/storage/app/images/global/users/2/qrcodeline.jpg",
    "/storage/app/images/global/users/3/qrcodeline.jpg": "/storage/app/images/global/users/3/qrcodeline.jpg",
    "/storage/app/images/global/users/4/qrcodeline.jpg": "/storage/app/images/global/users/4/qrcodeline.jpg",
    "/storage/app/images/global/users/5/qrcodeline.jpg": "/storage/app/images/global/users/5/qrcodeline.jpg",
    "/storage/app/images/global/users/6/qrcodeline.jpg": "/storage/app/images/global/users/6/qrcodeline.jpg",
    "/storage/app/images/global/users/7/qrcodeline.jpg": "/storage/app/images/global/users/7/qrcodeline.jpg",
    "/storage/app/images/global/users/8/qrcodeline.jpg": "/storage/app/images/global/users/8/qrcodeline.jpg",
    "/storage/app/images/global/users/9/qrcodeline.jpg": "/storage/app/images/global/users/9/qrcodeline.jpg",
    "/storage/app/images/global/users/10/qrcodeline.jpg": "/storage/app/images/global/users/10/qrcodeline.jpg",
    "/storage/app/images/global/users/11/qrcodeline.jpg": "/storage/app/images/global/users/11/qrcodeline.jpg",
    "/storage/app/images/global/users/12/qrcodeline.jpg": "/storage/app/images/global/users/12/qrcodeline.jpg",
    "/storage/app/images/global/users/13/qrcodeline.jpg": "/storage/app/images/global/users/13/qrcodeline.jpg",
    "/storage/app/images/global/users/14/qrcodeline.jpg": "/storage/app/images/global/users/14/qrcodeline.jpg",
    "/storage/app/images/global/users/15/qrcodeline.jpg": "/storage/app/images/global/users/15/qrcodeline.jpg",
    "/storage/app/images/global/users/16/qrcodeline.jpg": "/storage/app/images/global/users/16/qrcodeline.jpg",
    "/storage/app/images/global/users/17/qrcodeline.jpg": "/storage/app/images/global/users/17/qrcodeline.jpg",
    "/storage/app/images/private/users/1/idcard.jpg": "/storage/app/images/private/users/1/idcard.jpg",
    "/storage/app/images/private/users/2/idcard.jpg": "/storage/app/images/private/users/2/idcard.jpg",
    "/storage/app/images/private/users/3/idcard.jpg": "/storage/app/images/private/users/3/idcard.jpg",
    "/storage/app/images/private/users/4/idcard.jpg": "/storage/app/images/private/users/4/idcard.jpg",
    "/storage/app/images/private/users/5/idcard.jpg": "/storage/app/images/private/users/5/idcard.jpg",
    "/storage/app/images/private/users/6/idcard.jpg": "/storage/app/images/private/users/6/idcard.jpg",
    "/storage/app/images/private/users/7/idcard.jpg": "/storage/app/images/private/users/7/idcard.jpg",
    "/storage/app/images/private/users/8/idcard.jpg": "/storage/app/images/private/users/8/idcard.jpg",
    "/storage/app/images/private/users/9/idcard.jpg": "/storage/app/images/private/users/9/idcard.jpg",
    "/storage/app/images/private/users/10/idcard.jpg": "/storage/app/images/private/users/10/idcard.jpg",
    "/storage/app/images/private/users/11/idcard.jpg": "/storage/app/images/private/users/11/idcard.jpg",
    "/storage/app/images/private/users/12/idcard.jpg": "/storage/app/images/private/users/12/idcard.jpg",
    "/storage/app/images/private/users/13/idcard.jpg": "/storage/app/images/private/users/13/idcard.jpg",
    "/storage/app/images/private/users/14/idcard.jpg": "/storage/app/images/private/users/14/idcard.jpg",
    "/storage/app/images/private/users/15/idcard.jpg": "/storage/app/images/private/users/15/idcard.jpg",
    "/storage/app/images/private/users/16/idcard.jpg": "/storage/app/images/private/users/16/idcard.jpg",
    "/storage/app/images/private/users/17/idcard.jpg": "/storage/app/images/private/users/17/idcard.jpg"
}
